{
  "project_info": {
    "project_number": "302503572134",
    "firebase_url": "https://news-10-da41b.firebaseio.com",
    "project_id": "news-10-da41b",
    "storage_bucket": "news-10-da41b.appspot.com"
  },
  "client": [
    {
      "client_info": {
        "mobilesdk_app_id": "1:302503572134:android:0cd71658a065fca7",
        "android_client_info": {
          "package_name": "com.latest.news.hunt"
        }
      },
      "oauth_client": [
        {
          "client_id": "302503572134-28pd39q4kf2umohhht4ou6do2urjec8q.apps.googleusercontent.com",
          "client_type": 3
        }
      ],
      "api_key": [
        {
          "current_key": "AIzaSyBbZ8rwvRzgGMw8pSubC8QK3K5CmJb7-uw"
        }
      ],
      "services": {
        "analytics_service": {
          "status": 1
        },
        "appinvite_service": {
          "status": 1,
          "other_platform_oauth_client": []
        },
        "ads_service": {
          "status": 2
        }
      }
    }
  ],
  "configuration_version": "1"
}